Utilities for Fude Polygon • fude
…
出典：農林水産省「筆ポリゴンデータ（2025年度公開）」および「農業集落境界データ（2020年度）」を加工して作成。

Data enables extraction based on municipality names, former municipality names, and agricultural community names.

Note: This feature is available only for data obtained from FlatGeobuf (Obtaining Data #2).

extract_fude(d2, city = "松山市", kcity = "興居島")
#> Simple feature collection with 1691 features and 6 fields
#> Geometry type: MULTIPOLYGON
#> Dimension:     XY
#> Bounding box:  xmin: 132.6373 ymin: 33.87055 xmax: 132.6991 ymax: 33.92544
#> Geodetic CRS:  JGD2000
#> # A tibble: 1,691 × 7
#>    polygon_uuid                   land_type issue_year point_lng point_lat key  
#>  * <chr>                              <dbl>      <dbl>     <dbl>     <dbl> <chr>
#>  1 5a72b4ef-b5f4-465e-9948-e9314…       200       2025      133.      33.9 3820…
#>  2 c69d86d5-1fb2-4528-a87b-155d8…       200       2025      133.      33.9 3820…
#>  3 627134ea-919c-4769-bd94-be16c…       200       2025      133.      33.9 3820…
#>  4 f2631019-d16e-42f9-8501-75f26…       200       2025      133.      33.9 3820…
#>  5 8fedb70d-4bb9-4447-879b-a0eea…       200       2025      133.      33.9 3820…
#>  6 cd235cdf-da51-4ead-ad50-efc6e…       200       2025      133.      33.9 3820…
#>  7 5853b7a1-62c3-4973-9e79-cabd3…       200       2025      133.      33.9 3820…
#>  8 5e090780-6d16-4b9e-aca9-c5622…       200       2025      133.      33.9 3820…
#>  9 90de4abf-e972-4031-987f-f3391…       200       2025      133.      33.9 3820…
#> 10 e5ade914-c803-42d1-9fa8-0921b…       200       2025      133.      33.9 3820…
#> # ℹ 1,681 more rows
#> # ℹ 1 more variable: geometry <MULTIPOLYGON [°]>
…
